[1.1059044016452677, 0.5148537865856193, 0.01], [5, 2, 2], [7.597825825411964, 51.26890612867168, -121.63075818823089], [0.9758333333333333]
[1.0412967206916477, 0.5828978403296501, 0.01], [5, 4, 5], [1.5834379645530134, 82.37084047742042, -211.6341945610213], [0.9766666666666667]
[1.0208320254925516, 0.6565300772352363, 0.01], [5, 4, 4], [4.271087163514845, 80.92642179661689, -181.68736210272777], [0.9833333333333333]
[1.0969568325547454, 0.5803138339508792, 0.015144796765457139], [5, 5, 4], [4.77604875142758, 82.34042573955004, -211.6924154632711], [0.9783333333333334]
[0.8529935121312977, 0.7282828106441621, 0.01], [5, 5, 5], [3.049853417690613, 85.43490319192149, -241.59127632277546], [0.9758333333333333]
[1.1563611626149863, 0.5817586204299564, 0.016818820649041895], [5, 0, 0], [14.95788388114814, 18.30485076630255, -101.75493860369399], [0.9791666666666666]
[1.0756933266821025, 0.5517546203876814, 0.01], [5, 3, 0], [13.961605826764451, 72.1326056038941, -141.63744794706977], [0.9783333333333334]
[1.100896391760359, 0.5200926146760414, 0.013044498010574147], [5, 4, 0], [10.794477498456843, 74.21626158750739, -141.63403350444696], [0.9766666666666667]
[1.0519090738709567, 0.5723015923596222, 0.01], [5, 5, 0], [10.07156955510072, 75.3187142865979, -171.6342106662306], [0.9766666666666667]
[1.082007781164291, 0.6058683029803371, 0.01], [5, 3, 2], [9.685074329622234, 75.42364637830808, -151.69787608414464], [0.9891666666666666]
[1.0252529751855923, 0.6905354056054491, 0.01], [4, 1, 0], [14.506855199870188, 30.035212603936504, -81.72578838079104], [0.985]
[1.0002052641905894, 0.6737536912925872, 0.044430899841801666], [2, 0, 0], [7.66819799778844, 15.287529550514705, -41.71838985532498], [0.9808333333333333]
[1.0943811078455854, 0.49918125828511184, 0.01], [0, 1, 0], [3.039857255586079, 10.079389905493263, -41.603562366130696], [0.9758333333333333]
[1.0674353261027876, 0.6520729209525524, 0.01], [5, 1, 0], [21.973469922042568, 31.5505964583944, -111.72950824705534], [0.9758333333333333]
[1.1142023108051602, 0.568859402228814, 0.01], [5, 5, 0], [19.899883862434933, 75.53914080741204, -171.69306171303398], [0.9808333333333333]
[1.0803998198778122, 0.5388358608112892, 0.01], [5, 5, 2], [0.7629623012936353, 78.71988165602038, -181.6292356806891], [0.9808333333333333]
[1.1264623137633842, 0.5808614699887363, 0.01], [0, 0, 0], [1.9961363316977325, 9.42494614334634, -31.71732378375212], [0.9858333333333333]
[1.0867570340689732, 0.5297413844724829, 0.01], [5, 4, 1], [9.392766606614455, 76.05585276712684, -151.62649841854144], [0.9808333333333333]
[1.0804294470218605, 0.5567043905712991, 0.01], [4, 2, 1], [8.209085439653824, 45.786168364688606, -91.64713383759316], [0.9758333333333333]
[1.0564147825613173, 0.5613776954596037, 0.01], [4, 2, 0], [11.549812554500097, 44.57187355977615, -81.62779247802092], [0.98]
[1.027401886276945, 0.5711397266720871, 0.01], [3, 0, 0], [11.542822008557236, 18.505519612270643, -71.60854161294903], [0.9758333333333333]
[1.1290144678900211, 0.5543054424427177, 0.01], [4, 2, 2], [6.440516544447746, 46.26663282700529, -91.69331991033273], [0.98]
[1.1324689108392045, 0.5559532117855512, 0.01], [3, 0, 0], [14.01547586786182, 19.416286239584647, -71.69842212262476], [0.985]
[1.0677969355550265, 0.5506898059775438, 0.01], [5, 2, 0], [8.411319273438043, 47.178073683492805, -111.62848674153257], [0.9758333333333333]
[1.1297304496732166, 0.5445370720982271, 0.014307920686070239], [5, 4, 0], [8.135734099705587, 75.30456205818405, -141.6885754424575], [0.98]
[1.0609618729585335, 0.5499104456438737, 0.01], [2, 2, 0], [5.770243272962617, 20.747417959640607, -51.62087231860241], [0.9758333333333333]
[1.0636417158426945, 0.6316983080395543, 0.01], [2, 2, 2], [2.913404695345892, 22.84313522464067, -61.70534002388225], [0.9858333333333333]
[1.111167540147923, 0.5888102643173295, 0.01], [2, 2, 0], [4.913913228534511, 20.832923378751143, -51.709977804465254], [0.9808333333333333]
[1.064067852585573, 0.5508148726410453, 0.01], [2, 2, 2], [0.490685781755019, 22.855894440168562, -61.62488272522662], [0.98]
[1.0530630062560051, 0.5629329076462383, 0.01], [2, 2, 2], [0.4935365319778331, 22.89596695788302, -61.625995913902244], [0.9758333333333333]
[1.0950716203755144, 0.5481350953308097, 0.012225498253882743], [4, 1, 0], [11.68238042300012, 37.95980083730953, -81.65543221396021], [0.9808333333333333]
[1.1028914185405303, 0.5580448331829264, 0.01], [4, 2, 0], [11.885285191589697, 44.451951170969416, -81.67093625172346], [0.9858333333333333]
[1.0938245209668571, 0.575735337110421, 0.05462245786271843], [4, 1, 0], [14.383918385331981, 33.329404489773594, -81.72418231594], [0.9816666666666667]
[1.157488436482677, 0.522719137895733, 0.01], [5, 2, 0], [5.128329589059677, 48.51737212389826, -111.6902075743784], [0.9775]
[1.0950069186913316, 0.5663153098875747, 0.01], [5, 2, 0], [18.34516301789538, 45.033365155149134, -111.6713222285789], [0.995]
[1.0737073229474245, 0.5490601568671724, 0.0168133806167227], [1, 0, 0], [4.602506374211285, 15.98852260056449, -41.63958086043132], [0.9766666666666667]
[1.0770413484072523, 0.5854422277793438, 0.01], [4, 1, 0], [13.243919720087433, 35.11625246663775, -81.6724835761866], [0.9758333333333333]
[1.1015289372455732, 0.5863159175766337, 0.01], [5, 1, 0], [20.912508683360063, 35.43934847297018, -111.69784485482221], [0.9916666666666667]
[1.1015324089200504, 0.5391625350224347, 0.01], [5, 4, 0], [16.598677585470952, 74.13294340271135, -141.65069494394248], [0.9858333333333333]
[1.1182992444528184, 0.553603046308565, 0.01], [4, 1, 0], [12.887039046468182, 37.655777655164485, -81.68190229076139], [0.98]
[1.0732931790832918, 0.5611325955543894, 0.01], [4, 1, 0], [11.709516340407845, 36.35674456641326, -81.64442577463768], [0.9833333333333333]
[1.1139687357350687, 0.5200725924965758, 0.01], [5, 4, 0], [12.06633355735076, 73.77092835201015, -141.64404132823165], [0.9808333333333333]
[1.1311518330724892, 0.5129331364721008, 0.01], [5, 4, 0], [15.816759589705681, 74.58189890854135, -141.65408496954458], [0.9808333333333333]
[1.078408646929117, 0.5599501693734702, 0.014450996507765485], [5, 2, 0], [17.25088286783101, 46.23535887304844, -111.65280981281035], [0.9758333333333333]
[1.0995907421584419, 0.5371443241611378, 0.01], [5, 3, 0], [13.624349721176259, 72.86265362519923, -141.6467350663196], [0.985]
[1.0631651622188443, 0.5728574926944549, 0.01], [5, 5, 4], [5.450640988671225, 81.88802569885355, -211.6460226549133], [0.9791666666666666]
[1.1230510184329852, 0.5484117489654841, 0.01], [5, 2, 0], [17.89890389253661, 46.095111175682064, -111.68146276739847], [0.9841666666666666]
[1.081814159225356, 0.5432603544387462, 0.01], [5, 5, 5], [1.5187492374465688, 85.46769689902116, -241.6350745136641], [0.9858333333333333]
[1.0932564572010866, 0.5453853597832119, 0.01], [5, 5, 2], [7.904237355686216, 79.50821207424364, -181.6486418169843], [0.99]
[1.1118374527114545, 0.5240887775991999, 0.01], [5, 5, 5], [3.7503300823736936, 86.33747590938295, -241.64592623031066], [0.9775]
[1.0603200121231735, 0.5696065200687573, 0.01], [5, 5, 5], [1.9583816382251178, 85.81797282919335, -241.63992653219194], [0.9758333333333333]
[1.0243323865033558, 0.6552356253963836, 0.03152337060697107], [2, 0, 0], [6.996499537881321, 15.930073376306138, -41.71109138250671], [0.9825]
[1.0917845176792988, 0.542889127272032, 0.01], [5, 4, 4], [2.296135576092638, 80.99238606705713, -181.64467364495133], [0.9791666666666666]
[1.0814019271231792, 0.5585025579325593, 0.01], [5, 2, 0], [15.866442508471664, 45.354734931274685, -111.64990448505574], [0.9758333333333333]
[1.1092716158705591, 0.5514430786380098, 0.01], [5, 4, 4], [5.5092754986716725, 80.22239908822762, -181.67071469450858], [0.99]
[1.0902969869978185, 0.5721352186809852, 0.02115561446567961], [4, 1, 0], [13.594536482405601, 35.44746694270391, -81.68358782014448], [0.9916666666666667]
[1.0665725532362391, 0.564306775453477, 0.01], [4, 4, 0], [8.566370629087666, 47.096546589664854, -111.64087932868972], [0.9766666666666667]
[1.1035364835550436, 0.5374689381520605, 0.01], [5, 4, 0], [12.493308879958931, 75.06015458670466, -141.6510054217071], [0.98]
[1.0461403236003433, 0.6367175595001799, 0.01861584137214048], [2, 2, 2], [3.0865708392011584, 22.232727430492968, -61.70147372447266], [0.99]
[1.0804278845028146, 0.5583645145504351, 0.01], [5, 3, 0], [15.297685789948446, 72.45904803138706, -141.64879239905326], [0.9775]
[1.0750808427007508, 0.5591741299299529, 0.01], [5, 3, 0], [12.46127617331887, 72.51308404159036, -141.6442549726307], [0.9783333333333334]
[1.075090385592837, 0.5601795032388106, 0.01], [4, 4, 0], [11.480596534418208, 46.701344978983165, -111.64526988883165], [0.9791666666666666]
[1.088089947086069, 0.5661266561180127, 0.01], [4, 1, 0], [11.748274636412003, 36.056172612507794, -81.66421660320408], [0.9833333333333333]
[1.0807552438328316, 0.5704647724822614, 0.012235160176139143], [5, 4, 2], [8.984947554476094, 76.43313662576404, -151.66345517649123], [0.9783333333333334]
[1.1186369967068377, 0.5671551899798395, 0.01], [4, 1, 0], [13.684687421684167, 36.072537967382026, -81.69579218668667], [0.98]
[1.1159668465241297, 0.5128935786651727, 0.01], [4, 0, 0], [6.874016550759389, 20.590583538564545, -71.6388604251893], [0.9816666666666667]
[1.0788253088711932, 0.6389126501250335, 0.015144796765457139], [5, 5, 5], [4.523354466888122, 84.51057564761724, -241.7328827557617], [0.9791666666666666]
[1.1081824642353442, 0.5468609097521615, 0.01], [5, 5, 0], [13.017811999599731, 76.57285401994555, -171.66504337398752], [0.9883333333333333]
[1.129096147785943, 0.5474596287060043, 0.01], [5, 2, 0], [15.306495204071268, 47.41595208182648, -111.68655577649194], [0.9816666666666667]
[1.0691267766231967, 0.5816058371402646, 0.01257239838272857], [5, 4, 5], [3.720500457343314, 83.081800795548, -211.6633050121462], [0.9791666666666666]
[1.0850977669392678, 0.5431983896170134, 0.01], [4, 2, 0], [11.196727879578248, 45.21796120799054, -81.63829615655628], [0.9808333333333333]
[1.047316441561551, 0.5724537954778385, 0.01215396034303512], [5, 4, 3], [3.193123512144666, 77.36762889085914, -181.63192419738243], [0.9758333333333333]
[1.0721069338403035, 0.5633418891982701, 0.01], [5, 5, 2], [7.427323875897762, 77.65696489871712, -181.64544882303858], [0.985]
[0.9919626241088904, 0.6521557468751555, 0.01], [2, 1, 0], [6.218268377372778, 19.816761180763574, -51.654118370984044], [0.9825]
[1.0690743763644222, 0.5705196538705661, 0.01], [3, 0, 0], [10.423468215958254, 18.85129996003019, -71.649594030235], [0.9758333333333333]
[1.0320699810577962, 0.6003705188574499, 0.01], [5, 4, 5], [2.5295780552670157, 83.55857130367966, -211.64244049991524], [0.9783333333333334]
[1.0987126334670463, 0.5697435179281365, 0.011929298787046426], [4, 2, 1], [9.544365419249516, 45.42966528496169, -91.68038545018223], [0.9858333333333333]
[1.115486359337625, 0.5195952809087734, 0.02028959353091428], [5, 5, 1], [9.09449075746484, 77.7315541085035, -181.65537123377732], [0.9766666666666667]
[1.0899705279245837, 0.5495563521979525, 0.01], [5, 5, 0], [18.044648835737462, 75.48922529887456, -171.64952688012252], [0.9758333333333333]
[1.1046987551768168, 0.5475103651276776, 0.01], [5, 5, 0], [13.360507556386224, 75.94104496098743, -171.66220912030448], [0.9808333333333333]
[1.072644653984404, 0.581392477291544, 0.01], [4, 1, 0], [12.844422518137435, 35.40662408672427, -81.66403713127595], [0.9858333333333333]
[0.983805964772684, 0.684562958848721, 0.01], [5, 5, 5], [4.124732414842583, 84.31933411710774, -241.6783689236214], [0.9791666666666666]
[1.0839708917649253, 0.6043957913871641, 0.01], [5, 5, 5], [4.220189341522824, 84.9010460088943, -241.6983666831521], [0.9766666666666667]
[1.0826078479343335, 0.5569604889782771, 0.01], [5, 4, 4], [4.911451450162083, 79.71993392324877, -181.6495683369126], [0.9808333333333333]
[1.1209743365505047, 0.5502283754487549, 0.01514479676545714], [2, 2, 0], [4.147037668109088, 21.15651773269586, -51.68634750876472], [0.9816666666666667]
[1.0819006782605616, 0.5654169987480081, 0.01], [5, 4, 1], [9.789402615148582, 75.18954877785191, -151.65731767700856], [0.9783333333333334]
[1.1068364404374251, 0.5296944427067605, 0.01], [5, 2, 0], [1.5194368834737624, 48.13630590069458, -111.64653088314418], [0.9775]
[1.1140110311846265, 0.5406917880891234, 0.01], [5, 5, 0], [14.550633021139273, 76.27119171931503, -171.66470281927374], [0.9866666666666667]
[1.0337545973255604, 0.6024484869969788, 0.01], [5, 4, 5], [2.6888575931079686, 82.73219801430925, -211.64620308432254], [0.985]
[1.1171325276225306, 0.5234638715877885, 0.01], [5, 2, 0], [10.638539072315325, 48.220095994332546, -111.65059639921031], [0.9816666666666667]
[1.1118013829624562, 0.5511053670954591, 0.0103649123139468], [3, 0, 0], [12.176836874387131, 19.271105969242956, -71.67327166237186], [0.9891666666666666]
[1.103131916760974, 0.5425143986730789, 0.015577807232839806], [4, 0, 0], [10.90513273010914, 19.236386836015846, -71.6612241226669], [0.9858333333333333]
[1.1120005332569072, 0.5547590468790008, 0.032311228931359216], [2, 1, 0], [6.417575630211707, 20.154432289432886, -51.699070809067265], [0.9883333333333333]
[1.126816559163296, 0.528646194009704, 0.01], [5, 4, 2], [6.829807034286205, 77.1439076883664, -151.665462753173], [0.9908333333333333]
[1.1063488873614076, 0.5355989908857502, 0.011704705162260473], [5, 2, 0], [10.79118781285797, 47.728815861472434, -111.65365258340942], [0.9783333333333334]
[1.0640584738391001, 0.5601481630231506, 0.01], [5, 5, 2], [2.48308639172906, 78.42031040323693, -181.63420663686225], [0.9758333333333333]
[1.1191844718896387, 0.5511254644366917, 0.01], [5, 2, 0], [12.659390350835888, 46.30823623178664, -111.68030993632632], [0.9858333333333333]
[1.0895212560702199, 0.5762654433589869, 0.011112749126941372], [2, 2, 1], [2.61279242837918, 21.891218959686007, -61.67689944855615], [0.985]
[1.0913793933395624, 0.5474051244385718, 0.01], [4, 4, 0], [7.278021504447679, 47.61128989067375, -111.64878451777814], [0.99]
[1.0491211751837173, 0.580409007812721, 0.01], [5, 5, 0], [6.889585453129257, 76.7154390504708, -171.63953018299645], [0.9833333333333333]
[1.0754704679242764, 0.5624330957895054, 0.011286199191364286], [5, 4, 5], [3.6186421532183886, 82.84247671085367, -211.64918976290514], [0.9775]
[1.067404334441409, 0.5879703319414377, 0.01], [2, 2, 1], [3.275930839799975, 21.481362298247618, -61.665374666382846], [0.9908333333333333]
[1.0948820500561687, 0.5491626098715301, 0.01], [4, 4, 0], [11.191139864880824, 47.596420077664426, -111.65404465992769], [0.9775]
[1.0553943684528073, 0.5840734934914699, 0.01], [5, 5, 0], [11.787402063470203, 75.6651624168451, -171.6494678619443], [0.9916666666666667]
[1.1450907524022118, 0.5302463714368679, 0.01], [5, 5, 0], [13.411922518338542, 76.97198150840326, -171.68533712383908], [0.9866666666666667]
[1.1211856137911016, 0.5391480067117498, 0.0107298246278936], [4, 0, 0], [10.152531725547306, 19.600371609916184, -71.67106344513074], [0.9833333333333333]
[1.0510309172004286, 0.6280026091186784, 0.01257239838272857], [5, 5, 5], [4.3716556559784525, 83.79504144781731, -241.69160592470183], [0.9816666666666667]
[1.0981691340946074, 0.5340106121570726, 0.01], [5, 5, 2], [5.783316371787805, 78.09538787317382, -181.64217974625168], [0.9783333333333334]
[1.0851687537271504, 0.5631168937668463, 0.01], [5, 4, 2], [6.8035244876518846, 76.42687545564273, -151.65828564749398], [0.9841666666666666]
[1.0998921295576318, 0.5343698016390979, 0.01], [5, 2, 0], [7.853397915919292, 47.46860363077176, -111.64426193119672], [0.9783333333333334]
[1.0748002604548312, 0.5564835344050864, 0.01], [5, 5, 4], [4.792117224519702, 82.0731691691269, -211.64128379485993], [0.9791666666666666]
[1.0677863616843064, 0.5697067143714265, 0.01], [5, 5, 2], [8.045678806840442, 78.48561671918878, -181.64749307605572], [0.98]
[1.0619291518515368, 0.5725380397667408, 0.01], [0, 0, 0], [1.8400329073210793, 9.369060027126945, -31.64446719161828], [0.9758333333333333]
[1.0428562747833798, 0.5946927390753707, 0.01], [5, 5, 0], [10.37713842155, 76.93640268700108, -171.64754901385876], [0.9808333333333333]
[1.0696772454110746, 0.5664852869121542, 0.01], [2, 2, 2], [2.4540415514146505, 22.546333789975034, -61.64616253232323], [0.9816666666666667]
[0.9748315350172061, 0.6632626415644353, 0.01], [5, 5, 5], [3.815314129460603, 84.01451939112201, -241.64809417658165], [0.98]
[1.0342021441167064, 0.6004391468134626, 0.01], [5, 5, 1], [7.356937038899991, 77.83179788171134, -181.64464129093017], [0.9791666666666666]
[1.0142330632452898, 0.6060717301443878, 0.01430792068607024], [5, 3, 4], [6.00625126147796, 78.05962027956866, -181.63461271407576], [0.9758333333333333]
[1.1031004071849533, 0.5484738269421949, 0.01], [5, 4, 4], [3.298857985651116, 80.77078463916015, -181.66157423412716], [0.9841666666666666]
[0.888369230681042, 0.7513214668366555, 0.025684773583822276], [2, 1, 0], [6.057345567328229, 20.06433633148859, -51.66537547110152], [0.9816666666666667]
[1.079242698864326, 0.6178044508607865, 0.01], [5, 5, 5], [4.048049763235815, 85.27902912799853, -241.7070471497251], [0.9775]
[1.0804294470218605, 0.5567043905712991, 0.01], [4, 2, 2], [2.998625823587645, 46.95981685115899, -91.64713383759316], [0.9808333333333333]
[1.1024171521338109, 0.5630627274791684, 0.01], [2, 1, 0], [7.999634999316186, 19.88889660998694, -51.67547987961298], [0.9833333333333333]
[1.1021124868902437, 0.5521493915631986, 0.015620544182091613], [2, 2, 1], [3.404637964349124, 21.848385126679453, -61.66988242263553], [0.9791666666666666]
[1.0623491286674793, 0.576779231923729, 0.01], [5, 4, 4], [5.5698182126710885, 79.70161015464262, -181.64912836059122], [0.9766666666666667]
[1.0621926754916702, 0.6053769301514222, 0.01], [5, 5, 4], [4.978915149717554, 82.2977246923211, -211.6775696056431], [0.9841666666666666]
[1.0652288825880605, 0.6041546306379351, 0.01], [5, 5, 3], [5.708649366183428, 80.4913564041295, -211.67938351322599], [0.9933333333333333]
[1.087011230184345, 0.5629601475140307, 0.01], [4, 2, 2], [6.05015040122089, 46.3715971315693, -91.65997137769837], [0.9775]
[1.130876662426779, 0.5468076959126735, 0.01], [5, 5, 5], [3.951059541250857, 85.1196369517623, -241.68768435833945], [0.9783333333333334]
[1.1137807513172184, 0.5250190837744231, 0.01], [4, 2, 2], [4.4268346348029315, 46.58212350536822, -91.64879983509164], [0.9875]
[1.0673975982038022, 0.5670039181420072, 0.01], [2, 2, 1], [3.12755945697063, 21.760394606321977, -61.64440151634581], [0.9766666666666667]
[1.0542286873544062, 0.5735032005688541, 0.01], [4, 4, 0], [10.275772810063206, 47.00330501787244, -111.63773188792327], [0.9775]
[1.07686346853917, 0.5856877004142249, 0.01], [5, 4, 4], [5.246816100386671, 80.8604551174112, -181.6725511689534], [0.9775]
[1.0489065355823302, 0.5812983250100647, 0.01], [5, 4, 4], [2.1749517798467095, 80.5634601979691, -181.6402048605924], [0.9766666666666667]
[1.1023538972860618, 0.5530300314151996, 0.01], [4, 2, 1], [8.251960542975803, 45.410674266133725, -91.66538392870126], [0.9866666666666667]
[0.7488350007316924, 0.8808655416122771, 0.01], [5, 5, 5], [4.892754927777412, 83.00110970299032, -241.63970054234397], [0.9766666666666667]
[1.0454370477134483, 0.575376960770039, 0.01], [2, 2, 1], [1.5803686126018874, 21.62961722288429, -61.63081400848349], [0.9816666666666667]
[1.1012293415600238, 0.5597404662788463, 0.016072047449525333], [2, 0, 0], [5.265689794031788, 19.123815263588305, -41.677041855288394], [0.9758333333333333]
[1.1134181568243338, 0.5561480939668664, 0.01514479676545714], [5, 4, 1], [9.564998487197952, 75.32072324346736, -151.68471104755665], [0.9816666666666667]
[1.0770937254744881, 0.5725584259401867, 0.01], [5, 5, 4], [5.088204195257276, 82.17822420802952, -211.65965215141466], [0.985]
[1.0509942529005065, 0.5850729305924445, 0.01], [5, 4, 2], [6.8108706243219785, 76.26003931371682, -151.64606718349296], [0.9775]
[1.095859814409605, 0.5653179370847969, 0.023626761233445398], [2, 1, 0], [6.348753460551961, 20.15227237184417, -51.684804512727844], [0.9833333333333333]
[1.0445161652123325, 0.6024546309501635, 0.016043991821176724], [2, 2, 2], [2.4022394031635486, 22.621183758290282, -61.66301478798367], [0.9775]
[1.0797388767613543, 0.574482714882881, 0.01], [2, 1, 1], [4.489409301593745, 21.007152701146158, -61.664221591644235], [0.9775]
[1.0773194312055216, 0.5497310654164042, 0.01], [4, 4, 0], [6.975948416580781, 47.25160832411737, -111.63705049662192], [0.9775]
[1.0709587688613902, 0.5451447262249277, 0.014450996507765485], [3, 0, 0], [9.72306802336904, 19.516340112673987, -71.63055449159408], [0.9766666666666667]
[1.0669513814974467, 0.5962794888639068, 0.01234274295031234], [2, 1, 0], [5.937914083944179, 20.083788423789905, -51.67557361331166], [0.9833333333333333]
[1.1048956837454935, 0.5443144578877969, 0.032311228931359216], [4, 0, 0], [14.419965497242629, 19.05996030459756, -71.68152137056465], [0.9908333333333333]
[0.9426272275993561, 0.6995452468300138, 0.01], [5, 5, 5], [3.953031968791038, 83.65271342074031, -241.65217247442936], [0.9758333333333333]
[1.0817169063092544, 0.5690289837625152, 0.01], [5, 5, 5], [4.107855566078797, 83.9972133237375, -241.66074589007178], [0.9883333333333333]
[1.0880093843943062, 0.5548548395489226, 0.01], [4, 4, 0], [10.762209358450919, 47.33757207520268, -111.65286422394323], [0.9766666666666667]
[1.0881944445049383, 0.5525247806327245, 0.01], [2, 2, 1], [3.2210499218772974, 21.52812970147823, -61.650719225137664], [0.9825]
[1.0717488107735567, 0.5857898843683848, 0.01], [2, 2, 2], [2.2691337078576908, 22.76519625561675, -61.66753869514194], [0.9891666666666666]
[1.1243197758860046, 0.55289402958827, 0.01], [5, 5, 4], [4.173454216743553, 82.90979506068926, -211.68721380547427], [0.9808333333333333]
[1.111714643410295, 0.5235392641420284, 0.01], [5, 4, 4], [4.7602113797185, 80.5958833335176, -181.64525390755233], [0.9775]
[1.0697338008986867, 0.5599837453094707, 0.01], [5, 4, 0], [10.556433113044477, 75.13289671424012, -141.63971754620815], [0.9758333333333333]
[1.089301503346459, 0.5466873073774846, 0.024562304774040956], [3, 0, 0], [13.25037711960687, 18.97331781248133, -71.66055111549798], [0.985]
[1.1117345938219119, 0.5363200212881493, 0.01], [2, 0, 0], [2.780521355540259, 19.467131331007923, -41.65805461511006], [0.985]
[1.051554831485244, 0.5328023766495478, 0.01], [0, 0, 0], [2.828144892807714, 9.241106211090838, -31.59435720813479], [0.9758333333333333]
[1.1466385772255907, 0.5583033772625374, 0.01], [2, 0, 0], [5.649472990891317, 19.324842642741917, -41.714941954488125], [0.9758333333333333]
[1.085258222399602, 0.5476102569081656, 0.01], [5, 5, 0], [10.66640333191026, 75.6308940219525, -171.64286847930777], [0.9816666666666667]
[1.0839357663148912, 0.5640248886144555, 0.015144796765457139], [5, 5, 5], [3.8231832205783576, 85.38386861372614, -241.6631054516948], [0.9841666666666666]
[1.0890960821050322, 0.5582524775482938, 0.01], [5, 5, 2], [8.110947167675477, 77.81587876384718, -181.65734855965331], [0.9875]
[1.0861237390728218, 0.557029186041465, 0.01], [4, 2, 1], [8.006980031100538, 46.14434523460233, -91.65315292511428], [0.9841666666666666]
[1.023236525529664, 0.6170925681123234, 0.01], [5, 5, 5], [3.7521951607986375, 85.01162371136436, -241.650329093642], [0.9758333333333333]
[1.0334868934556851, 0.6320991371602515, 0.015854345249703083], [2, 2, 1], [4.710690653804084, 21.85881865934435, -61.68144037586564], [0.985]
[1.0906617431343069, 0.5083926222831929, 0.03417596728470689], [2, 0, 0], [1.5468498482032373, 19.591595630168747, -41.633230332702205], [0.9758333333333333]
[1.088056430001536, 0.5545886612865447, 0.01107698017151756], [5, 4, 2], [4.032345513656698, 76.36783058914261, -151.6537220714596], [0.9808333333333333]
[1.0827318186480754, 0.5676779174003688, 0.01], [2, 2, 0], [5.84417041910838, 20.760510130006093, -51.66040973604844], [0.9875]
[1.0846330407355198, 0.5644376619732236, 0.011286199191364286], [5, 4, 2], [7.601161366968881, 76.32343521649882, -151.66035690190012], [0.9833333333333333]
[1.046721040656729, 0.622419887483336, 0.01], [5, 5, 5], [4.101416720714192, 84.9436580700557, -241.67914092814007], [0.98]
[1.0748667968476808, 0.5677582614785035, 0.01], [4, 2, 2], [3.0369322470927527, 46.589958187208374, -91.65262505832618], [0.985]
[1.059995903449672, 0.6271332309986513, 0.01], [5, 3, 2], [10.546777940975655, 75.31860890514777, -151.69712913444832], [0.9883333333333333]
[1.095092827850217, 0.545444967514796, 0.01], [5, 5, 4], [4.342703465035877, 82.18536401323858, -211.650537795365], [0.9816666666666667]
[1.1187600552434682, 0.5543163160413673, 0.01], [0, 0, 0], [2.3619363456527935, 9.38166912074308, -31.683076371284834], [0.9841666666666666]
[1.0530158814531771, 0.5732578964588357, 0.01], [5, 4, 4], [3.986421731889118, 80.53121188473841, -181.636273777912], [0.9766666666666667]
[1.0692764195656472, 0.579482879866329, 0.01215396034303512], [5, 5, 4], [4.755034670204673, 82.74046628811237, -211.66091325977501], [0.9866666666666667]
[1.0887547037076335, 0.5571453858313558, 0.02283153694369134], [2, 2, 0], [4.315304449083496, 20.935150807600316, -51.66873162648268], [0.9816666666666667]
[1.1340946351678336, 0.5416877961777684, 0.01], [2, 0, 0], [4.568412240131245, 19.45747269428871, -41.6857824313456], [0.9866666666666667]
[1.112091130642993, 0.556251397854067, 0.01], [2, 2, 2], [2.8687738165152172, 22.80291137115359, -61.67834252849706], [0.9825]
[1.091876604104218, 0.5413001465182996, 0.01], [2, 2, 2], [2.2347478499258124, 22.82466853603917, -61.643176750622516], [0.9766666666666667]
[1.0851798093993992, 0.5510477535694241, 0.0107274091473295], [2, 2, 0], [3.898409491896018, 20.876613078744175, -51.646954972116156], [0.9858333333333333]
[1.112194682035246, 0.544513256775919, 0.0114596492557872], [2, 0, 0], [4.717637947957156, 19.338861029852378, -41.66816758806695], [0.9825]
[1.1075023411196938, 0.5597464639111258, 0.01], [2, 0, 0], [6.980882802834844, 18.900322855923694, -41.67724880503082], [0.9883333333333333]
[1.0864962491577108, 0.5477687366793613, 0.01], [4, 4, 0], [10.706685511608026, 47.00003779772064, -111.64426498583707], [0.9833333333333333]
[1.0274381494665548, 0.6035617537461293, 0.01], [2, 2, 0], [3.3730461293803686, 20.84283091516515, -51.64099990321269], [0.9775]
[1.0967418270970744, 0.574691658219144, 0.0107298246278936], [2, 2, 0], [5.727041107854115, 20.77106518398278, -51.68216330994411], [0.9891666666666666]
[1.116405600562396, 0.5582302304372433, 0.022144094899050663], [0, 0, 0], [2.934234181549203, 9.408816601454147, -31.69677992589869], [0.9883333333333333]
[1.0837708562314665, 0.5487351654824926, 0.01], [4, 4, 0], [6.987167483692456, 47.69706038684133, -111.64250602171396], [0.9875]
[1.0338884282688046, 0.6444793751179425, 0.01], [5, 4, 5], [4.5160886640660465, 83.58966965793672, -211.68836780338674], [0.9825]
[1.081814159225356, 0.5432603544387462, 0.01], [5, 5, 5], [3.686263566307279, 85.42695035865677, -241.6350745136641], [0.9758333333333333]
[1.0798814777017638, 0.557817280171627, 0.01], [2, 2, 0], [3.6840552853703032, 20.914062994590196, -51.64769875787339], [0.9858333333333333]
[1.0774084146171914, 0.5756525891166933, 0.021241088364183223], [0, 0, 0], [2.5496923879303086, 9.359012161170936, -31.674302092098067], [0.9775]
[1.0709259092415313, 0.5524687976652665, 0.015577807232839806], [2, 0, 0], [4.5928549771895995, 18.993820468369925, -41.63897251413964], [0.9766666666666667]
[1.0690743763644222, 0.5705196538705661, 0.01], [0, 0, 0], [2.298227859728458, 9.340079191716088, -31.649594030234987], [0.9766666666666667]
[1.1096671794011872, 0.5474292689915059, 0.01], [5, 5, 5], [3.862903330940753, 85.4403180182699, -241.6670964483927], [0.9891666666666666]
[1.0789103141116025, 0.5792717223211337, 0.01], [0, 0, 0], [2.6453336330615147, 9.276243611055165, -31.668182036432736], [0.9866666666666667]
[1.0364475523888088, 0.604943819706977, 0.01], [0, 0, 0], [2.979721605049184, 9.26460397225344, -31.651391372095787], [0.9908333333333333]
[1.1223463051960023, 0.5455803846840757, 0.021241088364183223], [0, 0, 0], [2.63251389711877, 9.306649876894577, -31.68916777824426], [0.9883333333333333]
[1.1016198560163981, 0.5478716568741888, 0.01], [5, 4, 2], [6.411550094297183, 76.96049425883353, -151.65949151289058], [0.9833333333333333]
[1.094398764441672, 0.524862417275509, 0.023626761233445398], [0, 0, 0], [3.062818977536483, 9.234655254970143, -31.642887942950626], [0.9783333333333334]
[1.0878910702716595, 0.5489403971494717, 0.011454818294658997], [2, 0, 0], [4.290568798428541, 19.185561343010452, -41.64828628571579], [0.9866666666666667]
[1.0543177869315021, 0.5991867856660736, 0.01], [2, 2, 2], [2.4085055876667454, 22.56303922501694, -61.663504572597574], [0.9791666666666666]
[1.100462245276228, 0.5568153607973154, 0.0103649123139468], [2, 0, 0], [5.700161890308121, 19.11565398915106, -41.66764251838749], [0.985]
[1.0360009432539485, 0.6138284982909359, 0.01], [2, 2, 0], [4.901595097589622, 20.828647794557348, -51.659829441544886], [0.9758333333333333]
[1.1285312960686547, 0.5897841709323954, 0.02028959353091428], [5, 5, 5], [4.104914467152176, 85.00503423552671, -241.73860506053197], [0.9816666666666667]
[1.077098319361233, 0.61372082881189, 0.01], [2, 2, 0], [4.478187219242967, 20.834532019106057, -51.700819148173125], [0.9791666666666666]
[1.078980225459236, 0.5546903827002765, 0.011454818294658997], [2, 0, 0], [6.889384692862132, 19.098113715222507, -41.64512542645417], [0.9766666666666667]
[1.0878910702716595, 0.5489403971494717, 0.011454818294658997], [2, 0, 0], [4.290568798428541, 19.185561343010452, -41.64828628571579], [0.9866666666666667]
[1.0723892877480767, 0.5610809604226499, 0.01], [2, 2, 0], [2.4216747228006117, 20.856537568276526, -51.64347024817073], [0.9783333333333334]
[1.021815740756542, 0.61182943823061, 0.014466201284697867], [2, 2, 0], [4.34226880108955, 20.86031899563403, -51.64811138027185], [0.9783333333333334]
[1.1009169880906948, 0.52079396425476, 0.01], [2, 2, 0], [4.271272348499555, 20.75856892686233, -51.63171095234546], [0.9758333333333333]
